{
  "data": [
    {
      "name": "T. Doumulin (3)"
    },
    {
      "name": "B. Jungels (3)"
    },
    {
      "name": "C. Froome"
    },
    {
      "name": "G. Van Avermaet (3)"
    },
    {
      "name": "E. Grosu (10)"
    },
    {
      "name": "F. Aru (3)"
    }
  ]
}