{
  "data": [
    {
      "position": "No.3",
      "type": "Seasons Competition",
      "color":"#FFFFFF"
    },
    {
      "position": "No.23",
      "type": "	One-day races",
      "color":"#fdd6d5"
    },
    {
      "position": "No.3	",
      "type": "Stage races",
      "color":"#FFFFFF"
    },
    {
      "position": "No.9	",
      "type": "Spring Classics",
      "color":"#fdd6d5"
    },
    {
      "position": "No.1	",
      "type": "Form (Last 6 Weeks)",
      "color":"#FFFFFF"
    }
  ]
}